<?xml version="1.0" encoding="UTF-8" standalone="no"?>
<svg
   width="128"
   height="59.733334"
   id="svg2"
   version="1.1"
   inkscape:version="1.4 (e7c3feb1, 2024-10-09)"
   sodipodi:docname="logo.svg"
   inkscape:export-filename="/home/giovanni/progetti/subotto/website/images/logo.png"
   inkscape:export-xdpi="90"
   inkscape:export-ydpi="90"
   xmlns:inkscape="http://www.inkscape.org/namespaces/inkscape"
   xmlns:sodipodi="http://sodipodi.sourceforge.net/DTD/sodipodi-0.dtd"
   xmlns="http://www.w3.org/2000/svg"
   xmlns:svg="http://www.w3.org/2000/svg"
   xmlns:rdf="http://www.w3.org/1999/02/22-rdf-syntax-ns#"
   xmlns:cc="http://creativecommons.org/ns#"
   xmlns:dc="http://purl.org/dc/elements/1.1/">
  <metadata
     id="metadata36">
    <rdf:RDF>
      <cc:Work
         rdf:about="">
        <dc:format>image/svg+xml</dc:format>
        <dc:type
           rdf:resource="http://purl.org/dc/dcmitype/StillImage" />
        <dc:title />
      </cc:Work>
    </rdf:RDF>
  </metadata>
  <defs
     id="defs34" />
  <sodipodi:namedview
     pagecolor="#ffffff"
     bordercolor="#666666"
     borderopacity="1"
     objecttolerance="10"
     gridtolerance="10"
     guidetolerance="10"
     inkscape:pageopacity="0"
     inkscape:pageshadow="2"
     inkscape:window-width="1472"
     inkscape:window-height="832"
     id="namedview32"
     showgrid="false"
     inkscape:zoom="5.0915932"
     inkscape:cx="64.125312"
     inkscape:cy="43.110278"
     inkscape:window-x="0"
     inkscape:window-y="38"
     inkscape:window-maximized="0"
     inkscape:current-layer="svg2"
     inkscape:showpageshadow="2"
     inkscape:pagecheckerboard="0"
     inkscape:deskcolor="#d1d1d1" />
  <g
     aria-label="v10.0"
     style="font-style:normal;font-variant:normal;font-weight:bold;font-stretch:normal;font-size:22.70571899px;line-height:125%;letter-spacing:0.27733332px;word-spacing:0px;fill:#3771c8;fill-opacity:1;stroke:none;stroke-width:1.06666672"
     id="text3013-3"
     transform="translate(1.1934221,-0.29835552)" />
  <g
     style="fill:#3771c8"
     transform="matrix(1.0449831,0,0,1.0449831,-255.17074,-39.723531)"
     id="g8">
    <path
       d="m 244.18649,55.55106 c 0,1.368541 1.36747,3.147646 4.15308,3.147646 2.6843,0 4.00113,-1.813318 4.00113,-3.010792 0,-1.710676 1.77267,-2.531803 3.59597,-2.531803 1.77265,0 3.59596,0.752701 3.59596,2.052814 0,0.992192 -0.50648,2.052813 -1.51942,2.942365 l -12.3073,11.256259 c -0.70907,0.650057 -1.11424,1.368543 -1.11424,2.018599 0,1.74489 1.51941,2.634444 4.7102,2.634444 h 14.9916 c 2.58302,0 3.89985,-0.957981 3.89985,-2.70287 0,-1.710677 -1.21554,-2.634445 -3.84919,-2.634445 h -8.15422 c 3.39336,-3.079215 4.55825,-4.071415 7.85034,-7.013777 2.27912,-2.087024 3.69724,-4.584619 3.69724,-6.740071 0,-4.379329 -5.82443,-7.219059 -11.64888,-7.219059 -5.97638,0 -11.90212,2.976584 -11.90212,7.80069"
       id="path10"
       inkscape:connector-curvature="0"
       style="stroke-width:1.06666672" />
    <path
       d="m 280.15083,71.118226 c 0,1.950171 1.51941,2.942366 4.00114,2.942366 2.63365,0 4.05178,-0.992195 4.05178,-2.942366 v -2.839725 c 2.48172,0 3.7479,-0.889553 3.7479,-2.60023 0,-1.813316 -1.26618,-2.70287 -3.79855,-2.70287 V 52.163919 c 0,-2.360733 -2.27913,-3.763491 -5.16603,-3.763491 -2.27912,0 -4.05178,0.752699 -5.36861,2.189667 l -11.75018,12.795868 0.10133,-0.102635 c -0.75971,0.684271 -1.06359,1.43697 -1.06359,2.087027 0,1.573823 1.57005,2.942365 4.6089,2.942365 h 10.63594 v 2.805511 m 0,-13.651206 v 5.508382 h -4.71021 l 4.71021,-5.508382"
       id="path12"
       inkscape:connector-curvature="0"
       style="stroke-width:1.06666672" />
  </g>
  <g
     style="fill:#3771c8"
     transform="matrix(1.0950814,0,0,0.91317413,-243.11982,201.16397)"
     id="g24">
    <path
       d="m 283.03719,-202.60544 c -7.16578,0 -11.92941,6.92151 -11.92941,14.08731 0,5.65934 3.05362,10.62654 9.36439,10.62654 7.53221,0 11.92942,-6.67722 11.92942,-13.8023 0,-5.65934 -3.05361,-10.91155 -9.3644,-10.91155 m -0.61072,5.78149 c 2.56503,0 3.50148,3.25719 3.50148,5.98507 0,2.64645 -1.3436,7.24722 -4.88577,7.24722 -2.52431,0 -3.46076,-3.09431 -3.46076,-5.78148 0,-2.56504 1.34359,-7.45081 4.84505,-7.45081"
       id="path26"
       inkscape:connector-curvature="0"
       style="stroke-width:1.06666672" />
    <path
       d="m 295.69503,-198.61539 c -1.83216,17.42589 -1.83216,17.62948 -1.83216,17.83305 0,1.66931 0.97715,2.52431 2.85003,2.52431 2.15787,0 3.25718,-1.05858 3.46075,-3.13503 l 1.18073,-11.35941 c 0.20357,-1.79144 2.11716,-3.0536 3.66432,-3.0536 0.73286,0 1.46574,0.24429 2.40217,0.24429 1.87288,0 3.5829,-1.6286 3.5829,-3.5829 0,-1.54716 -1.14002,-3.0536 -4.1529,-3.0536 -1.71003,0 -4.51934,1.6693 -5.33363,3.01288 v -0.20357 c 0,-1.79145 -1.14002,-2.4836 -2.36146,-2.4836 -2.07645,0 -3.21646,1.05859 -3.46075,3.25718"
       id="path28"
       inkscape:connector-curvature="0"
       style="stroke-width:1.06666672" />
    <path
       d="m 321.52534,-202.68687 c -7.20649,0 -11.97013,7.28795 -11.97013,14.16874 0,5.94434 3.37933,10.70796 9.9344,10.70796 3.74575,0 6.9215,-1.38429 9.20153,-3.9086 0.61072,-0.57001 0.81429,-1.14002 0.89572,-1.87289 0,-1.30287 -0.32572,-2.68717 -2.03573,-2.68717 -2.15788,0 -3.70505,2.52431 -6.84008,2.52431 -1.6693,0 -4.92648,-1.14001 -4.92648,-4.39718 0,-0.16286 0.0407,-0.36643 0.0407,-0.52929 h 9.32368 c 3.13503,0 5.04862,-1e-5 5.37434,-3.13504 0.0814,-0.57001 0.0814,-1.14001 0.0814,-1.6693 0,-5.41505 -3.13504,-9.20154 -9.07938,-9.20154 m -4.92648,9.77154 c 0.285,-2.52431 2.4836,-3.8679 4.35648,-3.8679 1.6693,0 3.21646,1.05859 3.21646,3.2979 0,0.16286 0,0.36643 -0.0408,0.57 h -7.53222"
       id="path30"
       inkscape:connector-curvature="0"
       style="stroke-width:1.06666672" />
  </g>
  <text
     xml:space="preserve"
     style="font-style:normal;font-variant:normal;font-weight:bold;font-stretch:normal;font-size:22.7057px;line-height:125%;font-family:'Porky\'s';-inkscape-font-specification:'Porky\'s, Bold';font-variant-ligatures:normal;font-variant-caps:normal;font-variant-numeric:normal;font-variant-east-asian:normal;letter-spacing:0.277333px;word-spacing:0px;fill:#3771c8;fill-opacity:1;stroke:none;stroke-width:1.06667"
     x="82.394691"
     y="102.5601"
     id="text3013"><tspan
       sodipodi:role="line"
       id="tspan1"
       x="82.394691"
       y="102.5601">v16.0</tspan></text>
  <text
     xml:space="preserve"
     style="font-style:normal;font-weight:normal;font-size:40px;line-height:1.25;font-family:sans-serif;letter-spacing:0px;word-spacing:0px;fill:#000000;fill-opacity:1;stroke:none"
     x="98.100685"
     y="30.197643"
     id="text828" />
  <path
     d="m 68.355156,50.796775 q 0.544937,-1.566693 1.952691,-4.927137 0.590348,-1.498576 2.11163,-1.362342 0.908228,0.06812 1.498576,0.658466 0.681171,0.681171 0.590348,1.680221 -0.04541,0.544937 -0.340585,1.135285 l -4.018909,8.128641 q -0.817405,1.657516 -2.452216,1.521282 -1.612105,-0.136234 -2.134336,-1.929985 l -2.543038,-8.696283 q -0.181646,-0.635759 -0.136234,-1.180696 0.06812,-0.999051 0.840111,-1.543988 0.703876,-0.476819 1.589399,-0.408702 1.498576,0.136234 1.861867,1.725633 z m 5.090949,4.768197 q 0,-0.227057 0.02271,-0.454114 L 75.171739,44.416473 74.422451,44.280239 Q 72.6287,44.007771 72.6287,42.236726 q 0,-0.908228 0.590348,-1.543987 0.590349,-0.658466 1.498577,-0.658466 0.181645,0 0.363291,0.04541 l 3.178798,0.499525 q 0.840111,0.136234 1.294225,0.726583 0.454114,0.567642 0.454114,1.339636 0,0.204351 -0.02271,0.408702 L 77.96454,55.814735 q -0.15894,0.930934 -0.771994,1.453165 -0.590348,0.544936 -1.430459,0.544936 -0.976345,0 -1.657516,-0.635759 -0.658466,-0.613054 -0.658466,-1.612105 z m 13.378513,-9.718039 0.09082,-0.02271 q 0.431409,-0.06812 0.840111,-0.06812 2.27057,0 3.859969,1.79375 1.521282,1.702928 1.521282,3.996203 0,2.225159 -1.430459,3.950792 -1.47587,1.79375 -3.882675,2.179747 -0.567642,0.09082 -1.112579,0.09082 -2.361393,0 -4.041615,-1.521282 -1.63481,-1.453165 -1.998101,-3.701029 -0.06812,-0.431408 -0.06812,-0.908228 0,-2.633861 1.612105,-6.266773 1.566693,-3.542089 3.337737,-5.154194 0.340586,-0.295174 0.95364,-0.385997 0.726582,-0.113528 1.543987,0.454114 0.817406,0.567643 0.95364,1.385048 0.09082,0.613054 -0.817405,2.11163 -0.681171,1.021756 -1.362342,2.066219 z m -1.566694,5.585602 q 0,0.862816 0.499526,1.407753 0.544936,0.613054 1.385047,0.499526 1.316931,-0.227057 1.316931,-1.657517 0,-0.771993 -0.431408,-1.339636 -0.408703,-0.590348 -1.157991,-0.590348 -0.726582,0 -1.180696,0.47682 -0.431409,0.476819 -0.431409,1.203402 z m 7.361528,4.018909 q 0,-0.95364 0.681171,-1.634811 0.681171,-0.703876 1.657516,-0.703876 0.953639,0 1.63481,0.681171 0.703877,0.681171 0.703877,1.657516 0,0.953639 -0.681171,1.63481 -0.681171,0.703877 -1.657516,0.703877 -0.95364,0 -1.657516,-0.681171 -0.681171,-0.681171 -0.681171,-1.657516 z m 11.312318,2.225158 q -0.54494,0.09082 -1.06717,0.09082 -2.929034,0 -4.836313,-2.656567 -1.498576,-2.11163 -1.975396,-5.222311 -0.181645,-1.112579 -0.181645,-2.247864 0,-2.860918 1.089873,-4.790903 1.362342,-2.338687 4.200551,-2.792801 0.54494,-0.09082 1.06717,-0.09082 2.92904,0 4.83632,2.656567 1.49857,2.11163 1.97539,5.222311 0.18165,1.112579 0.18165,2.247864 0,2.860919 -1.08988,4.790903 -1.36234,2.338687 -4.20055,2.792801 z m -2.11163,-13.441774 q -1.43046,0.204351 -1.43046,2.42951 0,0.771994 0.27247,2.497627 0.31788,1.975396 0.63576,2.815507 0.70387,1.725633 1.97539,1.521281 1.43046,-0.204351 1.43046,-2.452215 0,-0.7947 -0.27247,-2.474921 -0.31788,-2.020808 -0.65846,-2.860919 -0.68117,-1.680221 -1.95269,-1.47587 z"
     id="text3013-5"
     style="font-weight:bold;font-size:22.7057px;line-height:125%;font-family:'Porky\'s';-inkscape-font-specification:'Porky\'s, Bold';letter-spacing:0.277333px;word-spacing:0px;fill:#3771c8;stroke-width:1.06667"
     aria-label="v16.0" />
</svg>
